for-find-fun.c:6:7: main2 (declaration)
for-find-fun.c:13:17: main3 (definition)
for-find-fun2.c:5:7: main3 (declaration)
for-find-fun2.c:10:12: f (definition)
for-find-fun2.c:14:17: g (definition)
for-find-fun2.c:19:21: h (definition)
for-find-fun2.c:28:31: static_fun (definition)
for-list-functions.c:8:15: static_fun (definition)
for-list-functions.c:17:22: k (definition)
main.c:17:19: main (definition)
main2.c:6:8: fake_main (definition)
main2.c:10:12: domain (definition)
main2.c:14:16: main2 (definition)
main3.c:6:9: main (definition)
make-wrapper.c:7:7: defined (declaration)
make-wrapper.c:9:9: specified (declaration)
make-wrapper.c:11:11: external (declaration)
make-wrapper.c:13:15: large_name_to_force_line_break_in_stack_msg (definition)
make-wrapper.c:17:19: rec (definition)
make-wrapper.c:21:27: main (definition)
make-wrapper2.c:5:7: defined (definition)
make-wrapper2.c:13:13: specified (declaration)
make-wrapper2.c:16:16: external (declaration)
make-wrapper3.c:7:9: external (definition)
build-callgraph.i:7:9: main (definition)
build-callgraph.i:16:16: fn2 (declaration)
build-callgraph.i:18:23: fn1 (definition)
build-callgraph.i:26:32: main1 (definition)
build-callgraph.i:34:36: main2 (definition)
build-callgraph.i:46:49: main3 (definition)
build-callgraph.i:52:63: main4 (definition)
build-callgraph.i:64:69: main (definition)
recursions.i:8:10: g (definition)
recursions.i:12:15: f (definition)
recursions.i:17:20: h (definition)
recursions.i:22:24: i (definition)
recursions.i:26:28: j (definition)
recursions.i:30:30: l (declaration)
recursions.i:31:31: m (declaration)
recursions.i:33:35: k (definition)
recursions.i:37:39: l (definition)
recursions.i:41:43: m (definition)
recursions.i:45:46: norec (definition)
recursions.i:48:50: direct_rec (definition)
recursions.i:52:52: indirect_rec1 (declaration)
recursions.i:54:56: indirect_rec2 (definition)
recursions.i:58:60: indirect_rec1 (definition)
recursions.i:62:62: decl_only (declaration)
recursions.i:64:64: one_liner_function (definition)
recursions.i:66:66: multiple_indirect1 (declaration)
recursions.i:68:71: multiple_indirect2 (definition)
recursions.i:73:76: multiple_indirect1 (definition)
